module gitlab.com/codelabstudios/codelab/app

go 1.14

require (
	github.com/0xAX/notificator v0.0.0-20191016112426-3962a5ea8da1 // indirect
	github.com/codegangsta/envy v0.0.0-20141216192214-4b78388c8ce4 // indirect
	github.com/codegangsta/gin v0.0.0-20171026143024-cafe2ce98974 // indirect
	github.com/mattn/go-shellwords v1.0.10 // indirect
	github.com/radovskyb/watcher v1.0.7 // indirect
)
